Building Spatial Datasets - Read tabular data and convert to spatial data with R
…
Rows: 162 Columns: 7
── Column specification ────────────────────────────────────────────────────────
Delimiter: ","
chr (3): program_name_short, type, category
dbl (3): program_number, lon, lat
lgl (1): swing_space

ℹ Use `spec()` to retrieve the full column specification for this data.
ℹ Specify the column types or set `show_col_types = FALSE` to quiet this message.

By default, read_csv prints the number of rows and columns, the selected delimiter and the automatic specification of column types. In general, you should always examine the data after reading it in to make sure the column types are appropriate or if manual specification is needed.

bcps_programs_df

# A tibble: 162 × 7
   program_name_short program_number type            categ…¹ swing…²   lon   lat
   <chr>                       <dbl> <chr>           <chr>   <lgl>   <dbl> <dbl>
 1 Cecil E                         7 Traditional     E       FALSE   -76.6  39.3
 2 Steuart Hill E                  4 Traditional     E       FALSE   -76.6  39.3
 3 Lakeland EM                    12 Traditional     EM      FALSE   -76.6  39.3
 4 Eutaw-Marshburn E              11 Traditional     E       FALSE   -76.6  39.3
 5 City Springs EM                 8 Charter-Conver… EM      FALSE   -76.6  39.3
 6 James McHenry EM               10 Traditional     EM      FALSE   -76.6  39.3
 7 Tench Tilghman EM              13 Traditional     EM      FALSE   -76.6  39.3
 8 Stadium School M               15 Traditional     M       FALSE   -76.6  39.3
 9 Hilton E                       21 Traditional     E       FALSE   -76.7  39.3
10 Johnston Sq E                  16 Traditional     E       FALSE   -76.6  39.3
# … with 152 more rows, and abbreviated variable names ¹​category, ²​swing_space
…
