Building Spatial Datasets - Tidying data in R
…
🤔 Can you convert the data into a long format with pivot_longer()?

new_multifamily_units <-
  pivot_longer(
    new_multifamily_units,
    cols = contains(c("County", "City")),
    names_to = "county",
    values_to = "num_units"
  )

new_multifamily_units

# A tibble: 288 × 5
   `Date created`       Year MARYLAND county              num_units
   <dttm>              <dbl>    <dbl> <chr>                   <dbl>
 1 2022-10-19 00:00:00  2010     3442 Allegany County            66
 2 2022-10-19 00:00:00  2010     3442 Anne Arundel County       847
 3 2022-10-19 00:00:00  2010     3442 Baltimore County          635
 4 2022-10-19 00:00:00  2010     3442 Calvert County              2
 5 2022-10-19 00:00:00  2010     3442 Caroline County             0
 6 2022-10-19 00:00:00  2010     3442 Carroll County              0
 7 2022-10-19 00:00:00  2010     3442 Cecil County               68
 8 2022-10-19 00:00:00  2010     3442 Charles County              0
 9 2022-10-19 00:00:00  2010     3442 Dorchester County          96
10 2022-10-19 00:00:00  2010     3442 Frederick County           95
# … with 278 more rows
…
